{
    "run_time": 10,
    "sampling_rate": 1000,
    "source_delay": 0,
    "chaining": false,
    "aggressive_chaining": false,
    "dataset": "voip_stream/voip_stream.txt",

    "variant": "forwarding",

    "source": 1,

    "parser": 1,
    "dispatcher": 1,

    "ct24": 1,
    "ecr24": 1,
    "acd": 1,

    "pre_rcr": 1,
    "rcr": 1,
    "fofir": 1,

    "ecr": 1,
    "encr": 1,
    "url": 1,

    "score": 1,

    "sink": 1
}
